{
  "kind": "collectionType",
  "collectionName": "orders",
  "info": {
    "singularName": "order",
    "pluralName": "orders",
    "displayName": "Order",
    "description": ""
  },
  "options": {
    "draftAndPublish": false
  },
  "pluginOptions": {},
  "attributes": {
    "orderStatus": {
      "type": "relation",
      "relation": "oneToOne",
      "target": "api::order-status.order-status"
    },
    "owner": {
      "type": "relation",
      "relation": "oneToOne",
      "target": "plugin::users-permissions.user"
    },
    "createdByUser": {
      "type": "relation",
      "relation": "oneToOne",
      "target": "plugin::users-permissions.user"
    },
    "itemsSubTotal": {
      "type": "biginteger"
    },
    "orderTotal": {
      "type": "biginteger"
    },
    "shipCost": {
      "type": "biginteger"
    },
    "note": {
      "type": "text"
    },
    "trackingNumber": {
      "type": "string",
      "unique": true
    },
    "reasonCancel": {
      "type": "text"
    },
    "history": {
      "type": "json"
    },
    "orderNumber": {
      "type": "string",
      "required": true,
      "unique": true
    },
    "cartItems": {
      "type": "text"
    },
    "customerName": {
      "type": "string"
    },
    "phone": {
      "type": "string"
    },
    "discount": {
      "type": "json"
    },
    "paymentMethod": {
      "type": "json"
    },
    "shippingAddress": {
      "type": "json"
    },
    "cartItemsBackup": {
      "type": "json"
    },
    "isReviewed": {
      "type": "boolean",
      "default": false
    }
  }
}
