{
  "kind": "collectionType",
  "collectionName": "pages",
  "info": {
    "singularName": "page",
    "pluralName": "pages",
    "displayName": "Page",
    "description": ""
  },
  "options": {
    "draftAndPublish": false
  },
  "pluginOptions": {},
  "attributes": {
    "name": {
      "type": "string",
      "required": true
    },
    "slug": {
      "type": "string",
      "required": true,
      "unique": true
    },
    "content": {
      "type": "richtext"
    },
    "thumbnail": {
      "type": "string"
    },
    "status": {
      "type": "integer",
      "default": 0
    },
    "sort": {
      "type": "biginteger",
      "default": "0"
    },
    "excerpt": {
      "type": "text"
    },
    "templateId": {
      "type": "integer"
    },
    "owner": {
      "type": "relation",
      "relation": "oneToOne",
      "target": "plugin::users-permissions.user"
    }
  }
}
