{
  "kind": "collectionType",
  "collectionName": "menus",
  "info": {
    "singularName": "menu",
    "pluralName": "menus",
    "displayName": "Menu"
  },
  "options": {
    "draftAndPublish": false
  },
  "pluginOptions": {},
  "attributes": {
    "name": {
      "type": "string",
      "required": true
    },
    "location": {
      "type": "string"
    },
    "items": {
      "type": "json"
    }
  }
}
