{
  "kind": "collectionType",
  "collectionName": "product_categories",
  "info": {
    "singularName": "product-category",
    "pluralName": "product-categories",
    "displayName": "Product Category"
  },
  "options": {
    "draftAndPublish": false
  },
  "pluginOptions": {},
  "attributes": {
    "name": {
      "type": "string",
      "required": true
    },
    "slug": {
      "type": "string",
      "required": true,
      "unique": true
    },
    "excerpt": {
      "type": "text"
    },
    "thumbnail": {
      "type": "string"
    },
    "sort": {
      "type": "biginteger"
    },
    "isFeatured": {
      "type": "boolean",
      "default": false
    },
    "categoryParentId": {
      "type": "biginteger"
    }
  }
}
