{
  "kind": "collectionType",
  "collectionName": "products",
  "info": {
    "singularName": "product",
    "pluralName": "products",
    "displayName": "Product",
    "description": ""
  },
  "options": {
    "draftAndPublish": false
  },
  "pluginOptions": {},
  "attributes": {
    "name": {
      "type": "string",
      "required": true
    },
    "price": {
      "type": "biginteger"
    },
    "content": {
      "type": "richtext"
    },
    "excerpt": {
      "type": "text"
    },
    "thumbnails": {
      "type": "json"
    },
    "quantity": {
      "type": "biginteger"
    },
    "discountPrice": {
      "type": "biginteger"
    },
    "status": {
      "type": "integer",
      "default": 0
    },
    "sku": {
      "type": "string"
    },
    "sold": {
      "type": "biginteger"
    },
    "taxGroups": {
      "type": "json"
    },
    "isFeatured": {
      "type": "boolean",
      "default": false
    },
    "sort": {
      "type": "biginteger",
      "default": "0"
    },
    "priceList": {
      "type": "json"
    },
    "slug": {
      "type": "string"
    },
    "owner": {
      "type": "relation",
      "relation": "oneToOne",
      "target": "plugin::users-permissions.user"
    },
    "productCategories": {
      "type": "relation",
      "relation": "oneToMany",
      "target": "api::product-category.product-category"
    },
    "priceToSort": {
      "type": "biginteger",
      "private": true
    },
    "discountToSort": {
      "type": "float",
      "private": true
    },
    "averageStar": {
      "type": "float"
    }
  }
}
